efinity/la0_waveform.vcd
#0 $dumpon
$date today $end
$timescale 1 ns $end
$scope module top $end
$var wire 1 0 q $end
$var wire 1 1 e $end
$var wire 1 2 RESET $end
$var wire 16 3 M6809_ADDR $end
$var wire 8 4 M6809_DATA_IN $end
$var wire 8 5 M6809_DATA_OUT $end
$var wire 1 6 USB_SELECT $end
$var wire 1 7 RAM_SELECT $end
$var wire 1 8 ROM_SELECT $end
$var wire 1 9 M6809_RW $end
$var wire 1 a inst_ram/select $end
$var wire 1 b inst_ram/clock $end
$upscope $end
$enddefinitions $end
#0
$dumpvars
10
01
02
b1111111111111111 3
b11111111 4
b11010000 5
06
07
08
19
0a
0b
$end
#1
11
b00000000 4
18
1b
#2
00
#3
01
b11111111 4
08
0b
#4
10
#5
11
b00000000 4
18
1b
#6
00
#7
01
b11111111 4
08
0b
#8
10
#9
11
b00000000 4
18
1b
#10
00
#11
01
b1111111111111110 3
b11111111 4
08
0b
#12
10
#13
11
b11111000 4
18
1b
#14
00
#15
01
b1111111111111111 3
b11111111 4
08
0b
#16
10
12
#17
11
02
b00000000 4
18
1b
#18
00
#19
01
b1111100000000000 3
b11111111 4
08
0b
#20
10
12
#21
11
02
b00010000 4
18
1b
#22
00
#23
01
12
b1111100000000001 3
b11111111 4
08
0b
#24
10
#25
11
02
b11001110 4
18
1b
#26
00
#27
01
b1111100000000010 3
b11111111 4
08
0b
#28
10
12
#29
11
02
b11011010 4
18
1b
#30
00
12
#31
01
b1111100000000011 3
b11111111 4
08
0b
#32
10
#33
11
b00000000 4
18
1b
#34
00
#35
01
b1111100000000100 3
b11111111 4
08
0b
#36
10
#37
11
b10001110 4
18
1b
#38
00
#39
01
b1111100000000101 3
b11111111 4
b11011000 5
08
0b
#40
10
#41
11
b11100000 4
18
1b
#42
00
#43
01
b1111100000000110 3
b11111111 4
08
0b
#44
10
#45
11
b00010000 4
18
1b
#46
00
#47
01
b1111100000000111 3
b11111111 4
08
0b
#48
10
#49
11
b10111111 4
18
1b
#50
00
#51
01
b1111100000001000 3
b11111111 4
08
0b
#52
10
#53
11
b11010000 4
18
1b
#54
00
#55
01
b1111100000001001 3
b11111111 4
08
0b
#56
10
#57
11
b00000000 4
18
1b
#58
00
#59
01
b1101000000000000 3
b11111111 4
b11100000 5
08
09
0b
#60
10
#61
11
b00010000 4
17
1a
1b
#62
00
#63
01
b1101000000000001 3
b11111111 4
b00010000 5
07
0a
0b
#64
10
#65
11
b00010000 4
17
1a
1b
#66
00
#67
01
b1111100000001010 3
b11111111 4
b11011000 5
07
19
0a
0b
#68
10
#69
11
b00010111 4
18
1b
#70
00
#71
01
b1111100000001011 3
b11111111 4
08
0b
#72
10
#73
11
b00000000 4
18
1b
#74
00
#75
01
b1111100000001100 3
b11111111 4
08
0b
#76
10
#77
11
b00111010 4
18
1b
#78
00
#79
01
b1101100111111111 3
b11111111 4
b00001101 5
08
09
0b
#80
10
#81
11
b00010101 4
17
1a
1b
#82
00
#83
01
b1101100111111110 3
b11111111 4
b11111000 5
07
0a
0b
#84
10
#85
11
b00010101 4
17
1a
1b
#86
00
#87
01
b1111111111111111 3
b11111111 4
b11011000 5
07
19
0a
0b
#88
10
#89
11
b00000000 4
18
1b
#90
00
#91
01
b1111100001000111 3
b11111111 4
08
0b
#92
10
#93
11
b10111110 4
18
1b
#94
00
#95
01
b1111100001001000 3
b11111111 4
08
0b
#96
10
#97
11
b11010000 4
18
1b
#98
00
#99
01
b1111100001001001 3
b11111111 4
08
0b
#100
10
#101
11
b00000000 4
18
1b
#102
00
#103
01
b1101000000000000 3
b11111111 4
08
0b
#104
10
#105
11
b11100000 4
17
1a
1b
#106
00
#107
01
b1101000000000001 3
b11111111 4
07
0a
0b
#108
10
#109
11
b00010000 4
17
1a
1b
#110
00
#111
01
b1111100001001010 3
b11111111 4
07
0a
0b
#112
10
#113
11
b10000110 4
18
1b
#114
00
#115
01
b1111100001001011 3
b11111111 4
08
0b
#116
10
#117
11
b00000011 4
18
1b
#118
00
#119
01
b1111100001001100 3
b11111111 4
08
0b
#120
10
#121
11
b10100111 4
18
1b
#122
00
#123
01
b1111100001001101 3
b11111111 4
b11010000 5
08
0b
#124
10
#125
11
b10000100 4
18
1b
#126
00
#127
01
b1111111111111111 3
b11111111 4
08
0b
#128
10
#129
11
b00000000 4
18
1b
#130
00
#131
01
b1110000000010000 3
b11111111 4
b00000011 5
08
09
0b
#132
10
#133
11
16
1b
#134
00
#135
01
b1111100001001110 3
b11010000 5
06
19
0b
#136
10
#137
11
b10000110 4
18
1b
#138
00
#139
01
b1111100001001111 3
b11111111 4
08
0b
#140
10
#141
11
b00010101 4
18
1b
#142
00
#143
01
b1111100001010000 3
b11111111 4
08
0b
#144
10
#145
11
b10100111 4
18
1b
#146
00
#147
01
b1111100001010001 3
b11111111 4
08
0b
#148
10
#149
11
b10000100 4
18
1b
#150
00
#151
01
b1111111111111111 3
b11111111 4
08
0b
#152
10
#153
11
b00000000 4
18
1b
#154
00
#155
01
b1110000000010000 3
b11111111 4
b00010101 5
08
09
0b
#156
10
#157
11
16
1b
#158
00
#159
01
b1111100001010010 3
b11010000 5
06
19
0b
#160
10
#161
11
b10100110 4
18
1b
#162
00
#163
01
b1111100001010011 3
b11111111 4
08
0b
#164
10
#165
11
b10000100 4
18
1b
#166
00
#167
01
b1111111111111111 3
b11111111 4
08
0b
#168
10
#169
11
b00000000 4
18
1b
#170
00
#171
01
b1110000000010000 3
b11111111 4
08
0b
#172
10
#173
11
b00000011 4
16
1b
#174
00
#175
01
b1111100001010100 3
b11111111 4
06
0b
#176
10
#177
11
b10100110 4
18
1b
#178
00
#179
01
b1111100001010101 3
b11111111 4
08
0b
#180
10
#181
11
b00000001 4
18
1b
#182
00
#183
01
b1111111111111111 3
b11111111 4
08
0b
#184
10
#185
11
b00000000 4
18
1b
#186
00
#187
01
b1110000000010001 3
b11111111 4
08
0b
#188
10
#189
11
b00000000 4
16
1b
#190
00
#191
01
b1111100001010110 3
b11111111 4
06
0b
#192
10
#193
11
b10100110 4
18
1b
#194
00
#195
01
b1111100001010111 3
b11111111 4
b11010100 5
08
0b
#196
10
#197
11
b10000100 4
18
1b
#198
00
#199
01
b1111111111111111 3
b11111111 4
08
0b
#200
10
#201
11
b00000000 4
18
1b
#202
00
#203
01
b1110000000010000 3
b11111111 4
08
0b
#204
10
#205
11
b00000010 4
16
1b
#206
00
#207
01
b1111100001011000 3
b11111111 4
06
0b
#208
10
#209
11
b10100110 4
18
1b
#210
00
#211
01
b1111100001011001 3
b11111111 4
b11010000 5
08
0b
#212
10
#213
11
b00000001 4
18
1b
#214
00
#215
01
b1111111111111111 3
b11111111 4
08
0b
#216
10
#217
11
b00000000 4
18
1b
#218
00
#219
01
b1110000000010001 3
b11111111 4
08
0b
#220
10
#221
11
b00000000 4
16
1b
#222
00
#223
01
b1111100001011010 3
b11111111 4
06
0b
#224
10
#225
11
b10000110 4
18
1b
#226
00
#227
01
b1111100001011011 3
b11111111 4
b11010100 5
08
0b
#228
10
#229
11
18
1b
#230
00
#231
01
b1111100001011100 3
08
0b
#232
10
#233
11
b10110111 4
18
1b
#234
00
#235
01
b1111100001011101 3
b11111111 4
b11011000 5
08
0b
#236
10
#237
11
b11010000 4
18
1b
#238
00
#239
01
b1111100001011110 3
b11111111 4
08
0b
#240
10
#241
11
b00000010 4
18
1b
#242
00
#243
01
b1101000000000010 3
b11111111 4
b11111111 5
08
09
0b
#244
10
#245
11
b00010000 4
17
1a
1b
#246
00
#247
01
b1111100001011111 3
b11111111 4
b11011000 5
07
19
0a
0b
#248
10
#249
11
b00111001 4
18
1b
#250
00
#251
01
b1111100001100000 3
b11111111 4
08
0b
#252
10
#253
11
b00000000 4
18
1b
#254
00
#255
01
b1101100111111110 3
b11111111 4
08
0b
#256
10
#257
11
b11111000 4
17
1a
1b
#258
00
#259
01
b1101100111111111 3
b11111111 4
b01100000 5
07
0a
0b
#260
10
#261
11
b00001101 4
17
1a
1b
#262
00
#263
01
b1111100000001101 3
b11111111 4
b11011000 5
07
0a
0b
#264
10
#265
11
b10000110 4
18
1b
#266
00
#267
01
b1111100000001110 3
b11111111 4
08
0b
#268
10
#269
11
b00101010 4
18
1b
#270
00
#271
01
b1111100000001111 3
b11111111 4
08
0b
#272
10
#273
11
b10001101 4
18
1b
#274
00
#275
01
b1111100000010000 3
b11111111 4
b11010000 5
08
0b
#276
10
#277
11
b00100100 4
18
1b
#278
00
#279
01
b1101100111111111 3
b11111111 4
b00010001 5
08
09
0b
#280
10
#281
11
b00001101 4
17
1a
1b
#282
00
#283
01
b1101100111111110 3
b11111111 4
b11111000 5
07
0a
0b
#284
10
#285
11
b00001101 4
17
1a
1b
#286
00
#287
01
b1111111111111111 3
b11111111 4
b11010000 5
07
19
0a
0b
#288
10
#289
11
b00000000 4
18
1b
#290
00
#291
01
b1111100000110101 3
b11111111 4
08
0b
#292
10
#293
11
b00110100 4
18
1b
#294
00
#295
01
b1111100000110110 3
b11111111 4
08
0b
#296
10
#297
11
b00010010 4
18
1b
#298
00
#299
01
b1111111111111111 3
b11111111 4
08
0b
#300
10
#301
11
b00000000 4
18
1b
#302
00
#303
01
b1101100111111101 3
b11111111 4
b00010000 5
08
09
0b
#304
10
#305
11
b00001101 4
17
1a
1b
#306
00
#307
01
b1101100111111100 3
b11111111 4
b11100000 5
07
0a
0b
#308
10
#309
11
b00001101 4
17
1a
1b
#310
00
#311
01
b1101100111111011 3
b11111111 4
b00101010 5
07
0a
0b
#312
10
#313
11
b00001101 4
17
1a
1b
#314
00
#315
01
b1111100000110111 3
b11111111 4
b11010000 5
07
19
0a
0b
#316
10
#317
11
b10111110 4
18
1b
#318
00
#319
01
b1111100000111000 3
b11111111 4
08
0b
#320
10
#321
11
b11010000 4
18
1b
#322
00
#323
01
b1111100000111001 3
b11111111 4
08
0b
#324
10
#325
11
b00000000 4
18
1b
#326
00
#327
01
b1101000000000000 3
b11111111 4
08
0b
#328
10
#329
11
b11100000 4
17
1a
1b
#330
00
#331
01
b1101000000000001 3
b11111111 4
07
0a
0b
#332
10
#333
11
b00010000 4
17
1a
1b
#334
00
#335
01
b1111100000111010 3
b11111111 4
07
0a
0b
#336
10
#337
11
b10100110 4
18
1b
#338
00
#339
01
b1111100000111011 3
b11111111 4
b11011000 5
08
0b
#340
10
#341
11
b10000100 4
18
1b
#342
00
#343
01
b1111111111111111 3
b11111111 4
08
0b
#344
10
#345
11
b00000000 4
18
1b
#346
00
#347
01
b1110000000010000 3
b11111111 4
08
0b
#348
10
#349
11
b00000010 4
16
1b
#350
00
#351
01
b1111100000111100 3
b11111111 4
06
0b
#352
10
#353
11
b10000101 4
18
1b
#354
00
#355
01
b1111100000111101 3
b11111111 4
b11010000 5
08
0b
#356
10
#357
11
b00000010 4
18
1b
#358
00
#359
01
b1111100000111110 3
b11111111 4
08
0b
#360
10
#361
11
b00100111 4
18
1b
#362
00
#363
01
b1111100000111111 3
b11111111 4
08
0b
#364
10
#365
11
b11111010 4
18
1b
#366
00
#367
01
b1111111111111111 3
b11111111 4
08
0b
#368
10
#369
11
b00000000 4
18
1b
#370
00
#371
01
b1111100001000000 3
b11111111 4
08
0b
#372
10
#373
11
b00110101 4
18
1b
#374
00
#375
01
b1111100001000001 3
b11111111 4
08
0b
#376
10
#377
11
b00000010 4
18
1b
#378
00
#379
01
b1111111111111111 3
b11111111 4
08
0b
#380
10
#381
11
b00000000 4
18
1b
#382
00
#383
01
b1101100111111011 3
b11111111 4
08
0b
#384
10
#385
11
b00101010 4
17
1a
1b
#386
00
#387
01
b1111100001000010 3
b11111111 4
07
0a
0b
#388
10
#389
11
b10100111 4
18
1b
#390
00
#391
01
b1111100001000011 3
b11111111 4
08
0b
#392
10
#393
11
b00000001 4
18
1b
#394
00
#395
01
b1111111111111111 3
b11111111 4
08
0b
#396
10
#397
11
b00000000 4
18
1b
#398
00
#399
01
b1110000000010001 3
b11111111 4
b00101010 5
08
09
0b
#400
10
#401
11
16
1b
#402
00
#403
01
b1111100001000100 3
b11010000 5
06
19
0b
#404
10
#405
11
b00110101 4
18
1b
#406
00
#407
01
b1111100001000101 3
b11111111 4
08
0b
#408
10
#409
11
b00010000 4
18
1b
#410
00
#411
01
b1111111111111111 3
b11111111 4
08
0b
#412
10
#413
11
b00000000 4
18
1b
#414
00
#415
01
b1101100111111100 3
b11111111 4
08
0b
#416
10
#417
11
b11100000 4
17
1a
1b
#418
00
#419
01
b1101100111111101 3
b11111111 4
07
0a
0b
#420
10
#421
11
b00010000 4
17
1a
1b
#422
00
#423
01
b1111100001000110 3
b11111111 4
07
0a
0b
#424
10
#425
11
b00111001 4
18
1b
#426
00
#427
01
b1111100001000111 3
b11111111 4
08
0b
#428
10
#429
11
b10111110 4
18
1b
#430
00
#431
01
b1101100111111110 3
b11111111 4
08
0b
#432
10
#433
11
b11111000 4
17
1a
1b
#434
00
#435
01
b1101100111111111 3
b11111111 4
b01000111 5
07
0a
0b
#436
10
#437
11
b00010001 4
17
1a
1b
#438
00
#439
01
b1111100000010001 3
b11111111 4
b11010000 5
07
0a
0b
#440
10
#441
11
b10000110 4
18
1b
#442
00
#443
01
b1111100000010010 3
b11111111 4
08
0b
#444
10
#445
11
b00101101 4
18
1b
#446
00
#447
01
b1111100000010011 3
b11111111 4
08
0b
#448
10
#449
11
b10001101 4
18
1b
#450
00
#451
01
b1111100000010100 3
b11111111 4
08
0b
#452
10
#453
11
b00100000 4
18
1b
#454
00
#455
01
b1101100111111111 3
b11111111 4
b00010101 5
08
09
0b
#456
10
#457
11
b00010001 4
17
1a
1b
#458
00
#459
01
b1101100111111110 3
b11111111 4
b11111000 5
07
0a
0b
#460
10
#461
11
b00010001 4
17
1a
1b
#462
00
#463
01
b1111111111111111 3
b11111111 4
b11010000 5
07
19
0a
0b
#464
10
#465
11
b00000000 4
18
1b
#466
00
#467
01
b1111100000110101 3
b11111111 4
08
0b
#468
10
#469
11
b00110100 4
18
1b
#470
00
#471
01
b1111100000110110 3
b11111111 4
08
0b
#472
10
#473
11
b00010010 4
18
1b
#474
00
#475
01
b1111111111111111 3
b11111111 4
08
0b
#476
10
#477
11
b00000000 4
18
1b
#478
00
#479
01
b1101100111111101 3
b11111111 4
b00010000 5
08
09
0b
#480
10
#481
11
b00010001 4
17
1a
1b
#482
00
#483
01
b1101100111111100 3
b11111111 4
b11100000 5
07
0a
0b
#484
10
#485
11
b00010001 4
17
1a
1b
#486
00
#487
01
b1101100111111011 3
b11111111 4
b00101101 5
07
0a
0b
#488
10
#489
11
b00010001 4
17
1a
1b
#490
00
#491
01
b1111100000110111 3
b11111111 4
b11010000 5
07
19
0a
0b
#492
10
#493
11
b10111110 4
18
1b
#494
00
#495
01
b1111100000111000 3
b11111111 4
08
0b
#496
10
#497
11
b11010000 4
18
1b
#498
00
#499
01
b1111100000111001 3
b11111111 4
08
0b
#500
10
#501
11
b00000000 4
18
1b
#502
00
#503
01
b1101000000000000 3
b11111111 4
08
0b
#504
10
#505
11
b11100000 4
17
1a
1b
#506
00
#507
01
b1101000000000001 3
b11111111 4
07
0a
0b
#508
10
#509
11
b00010000 4
17
1a
1b
#510
00
#511
00
01
12
b1111100000111010 3
b11111111 4
b11010000 5
06
07
08
19
0a
0b
